{
	"info": {
		"_postman_id": "be396c18-651d-4fa3-9aa6-651e35634c1a",
		"name": "Test my API",
		"schema": "https://schema.getpostman.com/json/collection/v2.1.0/collection.json"
	},
	"item": [
		{
			"name": "Should create user",
			"event": [
				{
					"listen": "test",
					"script": {
						"exec": [
							"pm.environment.set(\"username\", pm.response.json().username);\r",
							"\r",
							"pm.test(\"test inscription\", function(){\r",
							"    pm.response.to.have.status(201);\r",
							"});"
						],
						"type": "text/javascript"
					}
				}
			],
			"request": {
				"method": "POST",
				"header": [],
				"body": {
					"mode": "raw",
					"raw": "{\r\n    \"email\": \"{{$randomEmail}}\",\r\n    \"password\": \"password\"\r\n}",
					"options": {
						"raw": {
							"language": "json"
						}
					}
				},
				"url": {
					"raw": "{{URL}}/api/users",
					"host": [
						"{{URL}}"
					],
					"path": [
						"api",
						"users"
					]
				}
			},
			"response": []
		},
		{
			"name": "Should dont reccreate same user",
			"event": [
				{
					"listen": "test",
					"script": {
						"exec": [
							"pm.test(\"test interdit d inscription meme user \"+pm.environment.get(\"username\"), function(){\r",
							"    pm.response.to.have.status(500);\r",
							"});"
						],
						"type": "text/javascript"
					}
				}
			],
			"request": {
				"method": "POST",
				"header": [],
				"body": {
					"mode": "raw",
					"raw": "{\r\n    \"email\": \"{{username}}\",\r\n    \"password\": \"password\"\r\n}",
					"options": {
						"raw": {
							"language": "json"
						}
					}
				},
				"url": {
					"raw": "{{URL}}/api/users",
					"host": [
						"{{URL}}"
					],
					"path": [
						"api",
						"users"
					]
				}
			},
			"response": []
		},
		{
			"name": "Should generate a token Login",
			"event": [
				{
					"listen": "test",
					"script": {
						"exec": [
							"pm.environment.set(\"token\", pm.response.json().token);\r",
							"\r",
							"pm.test(\"test recuperation de token on login\", function(){\r",
							"    pm.response.to.have.status(200);\r",
							"});"
						],
						"type": "text/javascript"
					}
				}
			],
			"request": {
				"method": "POST",
				"header": [],
				"body": {
					"mode": "raw",
					"raw": "{\r\n    \"username\": \"{{username}}\",\r\n    \"password\": \"password\"\r\n}",
					"options": {
						"raw": {
							"language": "json"
						}
					}
				},
				"url": {
					"raw": "{{URL}}/api/login_check",
					"host": [
						"{{URL}}"
					],
					"path": [
						"api",
						"login_check"
					]
				}
			},
			"response": []
		},
		{
			"name": "Should create a Demo",
			"event": [
				{
					"listen": "test",
					"script": {
						"exec": [
							"pm.environment.set(\"lastDemo\", pm.response.json().id);\r",
							"\r",
							"pm.test(\"test creer un demo and recuperer last Id\", function(){\r",
							"    pm.response.to.have.status(201);\r",
							"});"
						],
						"type": "text/javascript"
					}
				}
			],
			"request": {
				"auth": {
					"type": "bearer",
					"bearer": [
						{
							"key": "token",
							"value": "{{token}}",
							"type": "string"
						}
					]
				},
				"method": "POST",
				"header": [],
				"body": {
					"mode": "raw",
					"raw": "{\r\n    \"number\": 678,\r\n    \"name\": \"{{$randomLoremWord}}\",\r\n    \"descriptif\": \"{{$randomLoremText}}\"\r\n}",
					"options": {
						"raw": {
							"language": "json"
						}
					}
				},
				"url": {
					"raw": "{{URL}}/api/demos",
					"host": [
						"{{URL}}"
					],
					"path": [
						"api",
						"demos"
					]
				}
			},
			"response": []
		},
		{
			"name": "Should Edit the last demo",
			"event": [
				{
					"listen": "test",
					"script": {
						"exec": [
							"pm.test(\"test Modification the last demo\", function(){\r",
							"    pm.response.to.have.status(200);\r",
							"});\r",
							"\r",
							"pm.test(\"test the the name modified is modif\", function(){\r",
							"    pm.expect(pm.response.json()['name']).to.eql(\"modif\");\r",
							"})"
						],
						"type": "text/javascript"
					}
				}
			],
			"request": {
				"auth": {
					"type": "bearer",
					"bearer": [
						{
							"key": "token",
							"value": "{{token}}",
							"type": "string"
						}
					]
				},
				"method": "PUT",
				"header": [],
				"body": {
					"mode": "raw",
					"raw": "{\r\n    \"number\": 999,\r\n    \"name\": \"modif\",\r\n    \"descriptif\": \"modif text\"\r\n}",
					"options": {
						"raw": {
							"language": "json"
						}
					}
				},
				"url": {
					"raw": "{{URL}}/api/demos/{{lastDemo}}",
					"host": [
						"{{URL}}"
					],
					"path": [
						"api",
						"demos",
						"{{lastDemo}}"
					]
				}
			},
			"response": []
		},
		{
			"name": "Should delete a last demo",
			"event": [
				{
					"listen": "test",
					"script": {
						"exec": [
							"pm.test(\"test delete the last id demo \"+pm.environment.get(\"lastDemo\"), function(){\r",
							"    pm.response.to.have.status(204);\r",
							"});"
						],
						"type": "text/javascript"
					}
				}
			],
			"request": {
				"auth": {
					"type": "bearer",
					"bearer": [
						{
							"key": "token",
							"value": "{{token}}",
							"type": "string"
						}
					]
				},
				"method": "DELETE",
				"header": [],
				"body": {
					"mode": "raw",
					"raw": "",
					"options": {
						"raw": {
							"language": "json"
						}
					}
				},
				"url": {
					"raw": "{{URL}}/api/demos/{{lastDemo}}",
					"host": [
						"{{URL}}"
					],
					"path": [
						"api",
						"demos",
						"{{lastDemo}}"
					]
				}
			},
			"response": []
		}
	]
}